<svg width="23" height="22" viewBox="0 0 23 22" fill="none" xmlns="http://www.w3.org/2000/svg">
<path fill-rule="evenodd" clip-rule="evenodd" d="M4.02716 2.47639L2.01417 4.4894L2.01424 4.84579C2.01431 5.32269 2.02956 5.69968 2.06748 6.16138C2.35184 9.62468 3.80649 12.8931 6.19546 15.4366C7.12993 16.4315 8.15258 17.27 9.31817 17.9971C11.1469 19.1379 13.2201 19.8847 15.3638 20.1749C16.0763 20.2713 16.7505 20.3162 17.4878 20.3162H17.841L19.8562 18.301L21.8714 16.2858L19.4074 13.8218L16.9434 11.3578L15.6476 12.6536L14.3518 13.9494L11.3664 10.964L8.38098 7.97859L9.67677 6.68278L10.9726 5.38696L8.51077 2.92517C7.15677 1.57118 6.04699 0.463379 6.04457 0.463379C6.04214 0.463379 5.13431 1.36923 4.02716 2.47639ZM4.94623 4.15332L3.85232 5.24726L3.86192 5.46232C3.91496 6.65041 4.10009 7.73606 4.43881 8.84538C4.83051 10.1282 5.4313 11.3844 6.18283 12.492C7.47891 14.4021 9.23456 15.9554 11.2674 16.9905C11.8946 17.3099 12.4113 17.5302 13.045 17.7483C14.3109 18.184 15.5495 18.4132 16.961 18.4727L17.0842 18.4779L18.1798 17.3819L19.2753 16.2858L18.1094 15.1198L16.9434 13.9538L15.6498 15.2474C14.9383 15.9589 14.3522 16.541 14.3474 16.541C14.3359 16.541 5.78937 7.99447 5.78937 7.98296C5.78937 7.97812 6.37149 7.39205 7.08297 6.68058L8.37657 5.38701L7.21278 4.22319C6.57271 3.58309 6.04701 3.05938 6.04457 3.05938C6.04214 3.05938 5.54788 3.55165 4.94623 4.15332Z" fill="#F5A216"/>
</svg>
